%YAML 1.1
%TAG !u! tag:unity3d.com,2011:
--- !u!114 &6696394352770585860
MonoBehaviour:
  m_ObjectHideFlags: 0
  m_CorrespondingSourceObject: {fileID: 0}
  m_PrefabInstance: {fileID: 0}
  m_PrefabAsset: {fileID: 0}
  m_GameObject: {fileID: 906603622697729589}
  m_Enabled: 1
  m_EditorHideFlags: 0
  m_Script: {fileID: 11500000, guid: 09fcbd36c673f2f44993940c21853a35, type: 3}
  m_Name: 
  m_EditorClassIdentifier: 
  target: {fileID: 0}
  speed: 10
  rotationSpeed: 100
  autoPilot: 1
--- !u!1001 &2964961035557305718
PrefabInstance:
  m_ObjectHideFlags: 0
  serializedVersion: 2
  m_Modification:
    m_TransformParent: {fileID: 0}
    m_Modifications:
    - target: {fileID: 2716039372666209091, guid: 59da6f030c9c16f498da098aa133b01f, type: 3}
      propertyPath: m_Name
      value: Charm Fish
      objectReference: {fileID: 0}
    - target: {fileID: 2716039372666209091, guid: 59da6f030c9c16f498da098aa133b01f, type: 3}
      propertyPath: m_TagString
      value: CharmFish
      objectReference: {fileID: 0}
    - target: {fileID: 3385193750342851065, guid: 59da6f030c9c16f498da098aa133b01f, type: 3}
      propertyPath: m_LocalPosition.x
      value: 152.41971
      objectReference: {fileID: 0}
    - target: {fileID: 3385193750342851065, guid: 59da6f030c9c16f498da098aa133b01f, type: 3}
      propertyPath: m_LocalPosition.y
      value: 80.12
      objectReference: {fileID: 0}
    - target: {fileID: 3385193750342851065, guid: 59da6f030c9c16f498da098aa133b01f, type: 3}
      propertyPath: m_LocalPosition.z
      value: -266.74188
      objectReference: {fileID: 0}
    - target: {fileID: 3385193750342851065, guid: 59da6f030c9c16f498da098aa133b01f, type: 3}
      propertyPath: m_LocalRotation.x
      value: 0
      objectReference: {fileID: 0}
    - target: {fileID: 3385193750342851065, guid: 59da6f030c9c16f498da098aa133b01f, type: 3}
      propertyPath: m_LocalRotation.y
      value: 0
      objectReference: {fileID: 0}
    - target: {fileID: 3385193750342851065, guid: 59da6f030c9c16f498da098aa133b01f, type: 3}
      propertyPath: m_LocalRotation.z
      value: 0
      objectReference: {fileID: 0}
    - target: {fileID: 3385193750342851065, guid: 59da6f030c9c16f498da098aa133b01f, type: 3}
      propertyPath: m_LocalRotation.w
      value: 1
      objectReference: {fileID: 0}
    - target: {fileID: 3385193750342851065, guid: 59da6f030c9c16f498da098aa133b01f, type: 3}
      propertyPath: m_RootOrder
      value: 0
      objectReference: {fileID: 0}
    - target: {fileID: 3385193750342851065, guid: 59da6f030c9c16f498da098aa133b01f, type: 3}
      propertyPath: m_LocalEulerAnglesHint.x
      value: 0
      objectReference: {fileID: 0}
    - target: {fileID: 3385193750342851065, guid: 59da6f030c9c16f498da098aa133b01f, type: 3}
      propertyPath: m_LocalEulerAnglesHint.y
      value: 0
      objectReference: {fileID: 0}
    - target: {fileID: 3385193750342851065, guid: 59da6f030c9c16f498da098aa133b01f, type: 3}
      propertyPath: m_LocalEulerAnglesHint.z
      value: 0
      objectReference: {fileID: 0}
    - target: {fileID: 4517588831470428822, guid: 59da6f030c9c16f498da098aa133b01f, type: 3}
      propertyPath: m_Materials.Array.data[0]
      value: 
      objectReference: {fileID: 2100000, guid: 194db06d7b48a5649beb146c90ab30a4, type: 2}
    m_RemovedComponents:
    - {fileID: 3287764459324936183, guid: 59da6f030c9c16f498da098aa133b01f, type: 3}
    - {fileID: 4415580085192101274, guid: 59da6f030c9c16f498da098aa133b01f, type: 3}
  m_SourcePrefab: {fileID: 100100000, guid: 59da6f030c9c16f498da098aa133b01f, type: 3}
--- !u!1 &906603622697729589 stripped
GameObject:
  m_CorrespondingSourceObject: {fileID: 2716039372666209091, guid: 59da6f030c9c16f498da098aa133b01f, type: 3}
  m_PrefabInstance: {fileID: 2964961035557305718}
  m_PrefabAsset: {fileID: 0}
